%YAML 1.1
%TAG !u! tag:unity3d.com,2011:
--- !u!114 &11400000
MonoBehaviour:
  m_ObjectHideFlags: 0
  m_CorrespondingSourceObject: {fileID: 0}
  m_PrefabInstance: {fileID: 0}
  m_PrefabAsset: {fileID: 0}
  m_GameObject: {fileID: 0}
  m_Enabled: 1
  m_EditorHideFlags: 0
  m_Script: {fileID: 11500000, guid: 77bb3b044a0a67c4eba3807b39ffc38e, type: 3}
  m_Name: E-2
  m_EditorClassIdentifier: 
  levelName: E-2
  levelNextName: E-3
  levelTime: 150
  itemName:
  - Sapi (Cow)
  - Kambing (Goat)
  - Ayam (Chicken)
  - Bebek (Duck)
  - Buku (Book)
  - Pensil (Pencil)
  - Penghapus (Eraser)
  - Jagung (Corn)
  - Tomat (Tomato)
  - Terong (Eggplant)
  itemSprite:
  - {fileID: 21300000, guid: 154a30245699912419545594678c6a65, type: 3}
  - {fileID: 21300000, guid: 619bfe394a9db7349b31f4d539d4226a, type: 3}
  - {fileID: 21300000, guid: 1cc2dc7fbf13df54fb4f63377c07ea2b, type: 3}
  - {fileID: 21300000, guid: d7f65373b92d1a34599bf7b60a9b35f9, type: 3}
  - {fileID: 21300000, guid: 90dfe19d4c1f4aa4d8c6d97db10ad79b, type: 3}
  - {fileID: 21300000, guid: 49d214fab8e7f4c46b60189c29b4e3f4, type: 3}
  - {fileID: 21300000, guid: f445d047b661e044d8001663f405a27d, type: 3}
  - {fileID: 21300000, guid: 62ea3ddd0444f434594d65afb9f5c341, type: 3}
  - {fileID: 21300000, guid: 2874635db25bf9149874c69f5c0c1eca, type: 3}
  - {fileID: 21300000, guid: 69826ff7fd82dd94c9482b479506a99a, type: 3}
  audioThingClip:
  - {fileID: 8300000, guid: baed4ac0c48367e4fa303fb52f505173, type: 3}
  - {fileID: 8300000, guid: 7338f244151ba0249a67d79e49c4b417, type: 3}
  - {fileID: 8300000, guid: df401ffdd23cd4b47a298010d9a18b74, type: 3}
  - {fileID: 8300000, guid: 2f8f7d23ea1e67742827d7b007872e2f, type: 3}
  - {fileID: 8300000, guid: d003a2296236f5f459d72807a464c8f8, type: 3}
  - {fileID: 8300000, guid: 406e456c59f637040a16e87dd0bb2088, type: 3}
  - {fileID: 8300000, guid: 1ef69000f3a04694a918499aaed00207, type: 3}
  - {fileID: 8300000, guid: fbb1143e2e6615547bdd9506e7f6f3e2, type: 3}
  - {fileID: 8300000, guid: 5a3c3bb788cc3094083e15a3d82d70d3, type: 3}
  - {fileID: 8300000, guid: 641aa5542b1ea2d4bbd4298c89ae2ac9, type: 3}
