%YAML 1.1
%TAG !u! tag:unity3d.com,2011:
--- !u!114 &11400000
MonoBehaviour:
  m_ObjectHideFlags: 0
  m_CorrespondingSourceObject: {fileID: 0}
  m_PrefabInstance: {fileID: 0}
  m_PrefabAsset: {fileID: 0}
  m_GameObject: {fileID: 0}
  m_Enabled: 1
  m_EditorHideFlags: 0
  m_Script: {fileID: 11500000, guid: 77bb3b044a0a67c4eba3807b39ffc38e, type: 3}
  m_Name: E-3
  m_EditorClassIdentifier: 
  levelName: E-3
  levelNextName: E-4
  levelTime: 150
  itemName:
  - Kasur (Bed)
  - Meja (Table)
  - Kursi (Chair)
  - Labu (Pumpkin)
  - Semangka (Watermelon)
  - Anggur (Grape)
  - Wortel (Carrot)
  - Kelinci (Rabbit)
  - Burung (Bird)
  - Tupai (Squirrel)
  itemSprite:
  - {fileID: 21300000, guid: 90fbfa9b2defd4d4d87c4216b19be432, type: 3}
  - {fileID: 21300000, guid: 0681244703090664e8b5a16ffd4b8845, type: 3}
  - {fileID: 21300000, guid: cd95da75fb45c5b4fa30389597dcf8eb, type: 3}
  - {fileID: 21300000, guid: efc6249f8e4b10c4697ad853e99d9ade, type: 3}
  - {fileID: 21300000, guid: 48b7cb4d835145443905384c344edbe7, type: 3}
  - {fileID: 21300000, guid: 8bb2df0cbe9180b418af90c65794913b, type: 3}
  - {fileID: 21300000, guid: 7dbb09b24607dbf4c9312ac3a6d7e410, type: 3}
  - {fileID: 21300000, guid: 98ea5895a3497f7438757b1d26ba000b, type: 3}
  - {fileID: 21300000, guid: 1606ed422f788fe45a5d5625f522eb40, type: 3}
  - {fileID: 21300000, guid: 2de682f52712bc44694a7d690ed658c7, type: 3}
  audioThingClip:
  - {fileID: 8300000, guid: 8f40285f5ffbcfd4484c1c70b10bdde1, type: 3}
  - {fileID: 8300000, guid: ab53450577bb23d43ab57ebad8c670e4, type: 3}
  - {fileID: 8300000, guid: f7e20e6b31968c9408ddcb4d848ee618, type: 3}
  - {fileID: 8300000, guid: 2a56ae74b421d10478493053e516e89f, type: 3}
  - {fileID: 8300000, guid: 08532cf0d491dd849ab0dfc5983b7afe, type: 3}
  - {fileID: 8300000, guid: a610f114443ddde46ae98fabfccfb4f7, type: 3}
  - {fileID: 8300000, guid: 684452f27f4f9234494f5717674ed189, type: 3}
  - {fileID: 8300000, guid: beeee1f9e8a6bf74ba9cb1ea000cf138, type: 3}
  - {fileID: 8300000, guid: 5b8ba414f8ea4bf48bcf36928be16af2, type: 3}
  - {fileID: 8300000, guid: 8f662d8467bcd404597645ad167fcad3, type: 3}
