%YAML 1.1
%TAG !u! tag:unity3d.com,2011:
--- !u!114 &11400000
MonoBehaviour:
  m_ObjectHideFlags: 0
  m_CorrespondingSourceObject: {fileID: 0}
  m_PrefabInstance: {fileID: 0}
  m_PrefabAsset: {fileID: 0}
  m_GameObject: {fileID: 0}
  m_Enabled: 1
  m_EditorHideFlags: 0
  m_Script: {fileID: 11500000, guid: 77bb3b044a0a67c4eba3807b39ffc38e, type: 3}
  m_Name: H-4
  m_EditorClassIdentifier: 
  levelName: H-4
  levelNextName: H-5
  levelTime: 120
  itemName:
  - Ayam (Chicken)
  - Bebek (Duck)
  - Babi (Pig)
  - Domba (Sheep)
  - Sapi (Cow)
  - Kuda (Horse)
  - Kambing (Goat)
  itemSprite:
  - {fileID: 21300000, guid: 1cc2dc7fbf13df54fb4f63377c07ea2b, type: 3}
  - {fileID: 21300000, guid: d7f65373b92d1a34599bf7b60a9b35f9, type: 3}
  - {fileID: 21300000, guid: d2cf0eb98c4ac504f986d61ea7bae61c, type: 3}
  - {fileID: 21300000, guid: cbe014b2820853a409c1cb0a790ac542, type: 3}
  - {fileID: 21300000, guid: 154a30245699912419545594678c6a65, type: 3}
  - {fileID: 21300000, guid: 45f34d711fb5ce544aa74662ae0bb677, type: 3}
  - {fileID: 21300000, guid: 619bfe394a9db7349b31f4d539d4226a, type: 3}
  audioThingClip:
  - {fileID: 8300000, guid: df401ffdd23cd4b47a298010d9a18b74, type: 3}
  - {fileID: 8300000, guid: 2f8f7d23ea1e67742827d7b007872e2f, type: 3}
  - {fileID: 8300000, guid: 571b0dc5a44955f418178b85bbb0444b, type: 3}
  - {fileID: 8300000, guid: 272d02da4ed137f409bb220c4809e3cc, type: 3}
  - {fileID: 8300000, guid: baed4ac0c48367e4fa303fb52f505173, type: 3}
  - {fileID: 8300000, guid: 81845e74fe861aa48ac216cd39921b96, type: 3}
  - {fileID: 8300000, guid: 7338f244151ba0249a67d79e49c4b417, type: 3}
