%YAML 1.1
%TAG !u! tag:unity3d.com,2011:
--- !u!114 &11400000
MonoBehaviour:
  m_ObjectHideFlags: 0
  m_CorrespondingSourceObject: {fileID: 0}
  m_PrefabInstance: {fileID: 0}
  m_PrefabAsset: {fileID: 0}
  m_GameObject: {fileID: 0}
  m_Enabled: 1
  m_EditorHideFlags: 0
  m_Script: {fileID: 11500000, guid: 77bb3b044a0a67c4eba3807b39ffc38e, type: 3}
  m_Name: H-5
  m_EditorClassIdentifier: 
  levelName: H-5
  levelNextName: SampleScene
  levelTime: 150
  itemName:
  - Badak (Rhinoceros)
  - Burung (Bird)
  - Gajah (Elephant)
  - Harimau (Tiger)
  - Jerapah (Giraffe)
  - Kuda (Horse)
  - Monyet (Monkey)
  - Singa (Lion)
  - Tupai (Squirel)
  - Zebra (Zebra)
  itemSprite:
  - {fileID: 21300000, guid: 8d5f6936ef6db534aa4a7e95e56ab1fc, type: 3}
  - {fileID: 21300000, guid: 1606ed422f788fe45a5d5625f522eb40, type: 3}
  - {fileID: 21300000, guid: 7c51423c167efa245939e2d4283f10b8, type: 3}
  - {fileID: 21300000, guid: 3f9c7eef6835a2247acb551ff64da900, type: 3}
  - {fileID: 21300000, guid: 89ee29d4ced127f4a97b0bff7339f42b, type: 3}
  - {fileID: 21300000, guid: 45f34d711fb5ce544aa74662ae0bb677, type: 3}
  - {fileID: 21300000, guid: 8e70865368ed7ca4ab4c2a0f1bbe6b19, type: 3}
  - {fileID: 21300000, guid: 74faac840df0dfc45a3c16a01c5c6d1f, type: 3}
  - {fileID: 21300000, guid: 2de682f52712bc44694a7d690ed658c7, type: 3}
  - {fileID: 21300000, guid: 4d6256aa58d28304eb2fc53b9c592058, type: 3}
  audioThingClip:
  - {fileID: 8300000, guid: fd10103490e408341a0d38afb06cd92f, type: 3}
  - {fileID: 8300000, guid: 5b8ba414f8ea4bf48bcf36928be16af2, type: 3}
  - {fileID: 8300000, guid: 0a4ae87d279c18a4dbb187df1814148f, type: 3}
  - {fileID: 8300000, guid: 1c82e646d75a8884d880043005539bd9, type: 3}
  - {fileID: 8300000, guid: 2a6dd580a81787147b9403230b2c23a4, type: 3}
  - {fileID: 8300000, guid: 81845e74fe861aa48ac216cd39921b96, type: 3}
  - {fileID: 8300000, guid: f0a9eca0636ae794585b1ac0ef063053, type: 3}
  - {fileID: 8300000, guid: 362bad3d1fa2a664493caa28c99ec1ed, type: 3}
  - {fileID: 8300000, guid: 8f662d8467bcd404597645ad167fcad3, type: 3}
  - {fileID: 8300000, guid: 5620bb91194987045870bda90b233faf, type: 3}
